{
  "type": "service_account",
  "project_id": "ar-scavenger-hunt-a68c9",
  "private_key_id": "b67e483bb219ef93e0e270ab2bafc83000bda869",
  "private_key": "-----BEGIN PRIVATE KEY-----\nMIIEvAIBADANBgkqhkiG9w0BAQEFAASCBKYwggSiAgEAAoIBAQCWikwIlFmKc8tN\nB06S+NvPlWAJx9tFdbNmkQBXUnb/3YOePU+K0MLEFeQ6+H6HGJWvyotNqyf2gkL5\nnaogeG58vS2nlF8gXoUrrWcphNgEQOVdHdaic5iKkayvo+AExHpLwq+jQTYFDWIv\nQnMUH85B8pN8+sRfE72vvGI+ZN8hAkftwgGp8Mjcx/bFY6OItpBkJrMTKQThqJ58\n2md12GbeaOPsArz51XFeyBHfVsyRLnrWj6ESmm4yPXcXv/lbsn/Na5eLQq3VfTC9\nkppF9f44AwyD9xhvIiB1p3R26gSKdLD0DuK0QCC/DJeU29VHPs3q/ZaEktaSzY3q\n+1tNUfGjAgMBAAECggEAPrSTkD1PANtT0x2YjqLHWLPFYb2Uad3poO8EP9tTQyff\nc7HhKJblkez2eNPaTGairytElFEXX9iJklUosMbJav8X/cZRS3fjq7pajtJNcpQf\nlgZgSaGx6AJe9nhhz0qSEG2jYHLA0CDvhXT932OSNCkZY0VHN71O1V04ZPn6cVJQ\nmqBOLZTeSEWVYyaB6hvoZ3fw4e8E6e9zFJ8bK7llVWNuR/8FzfUr3M4Xr3/4ULdP\nlL7vv+hwtnrETe0wLjrSp52teNKaqRi/vTnd8j8NYgjp76IdYmg15pFqS0goonV1\nqrpB3BB1uWBzBfyc7bQSy2uMtdwQpA9ghQukGWCgFQKBgQDPuTLD93i8rtNH589M\nSYkdWoMrZTWm562zbtZlNF3IUGmz+/qk+5Ark7Xs1Oh4lGPs5jse9wBCBCScWOg5\n8nz6eEe2BGHOn5koQxSVW0eokiPDZ+S0/EUgjWzayx1NLewPV8pEIAbfkpxBhdXE\nEDSDSDyi8RYn5LOgt7KhX35pXwKBgQC5hub2e7AkZqyMKSkuFiWIzM0+bj5TSBIG\nYrzY5+uaRC+zpRc6B7lBGsTBI1xDcq2tajQyceBSdgU1wowMjumZZZ+LlX9olroQ\ndZAv5OZLn0urekpHr3w2jvHObcQUgC68BqQlSJCx+d4MTFRvBKmhPWZdhwREQnQK\ntVRMEV7qPQKBgAN23j7gcLYM4F8xoYZvL4c6zDc8D+IBuSbl8VNsxSejF7A1wp9f\nxq7DXuRdRKdGKkh4KoJAslNniEjHPtBAmA8BVIjXl93/UWmXfM9k31QTY99Na0YN\ncwWw9iDMBGgWHPrAhxINyq+N3WdGWSNU9ds+qCw7gxgVO12x0pvYYN5XAoGAcDaH\nBbhkHnA3lwLiVGyywR5WWZdmfQrPVCtuW6dS2li5nWeSN9gqFZWyQbs4d9cp8wSU\nk5pK+rVFi3GjMYlTAyPzLwL6L/FSktf4oO9K15x+sTXjLZ6Xe4xT9u5vNZMeMT23\nFJHiarNduYSFYSypyMuRWaprSzoCY+OvG9850GUCgYAaz8ocHrF5zTiIXoi5bZR7\nAhWat+ItKOJlH0TWvK93ZzCEbdj4gplyrfDcgM1cH44I5LpyshblJ+8uX07th36W\nPNZORn1JEI35yPnAs2n80SMximfKaEEmSLMAG9425/p6Sp0Dz4yJcSiHtG/jWqBO\nLKF91Wd+z2P5uXYgY8z8kA==\n-----END PRIVATE KEY-----\n",
  "client_email": "firebase-adminsdk-byri4@ar-scavenger-hunt-a68c9.iam.gserviceaccount.com",
  "client_id": "117911157045250199448",
  "auth_uri": "https://accounts.google.com/o/oauth2/auth",
  "token_uri": "https://accounts.google.com/o/oauth2/token",
  "auth_provider_x509_cert_url": "https://www.googleapis.com/oauth2/v1/certs",
  "client_x509_cert_url": "https://www.googleapis.com/robot/v1/metadata/x509/firebase-adminsdk-byri4%40ar-scavenger-hunt-a68c9.iam.gserviceaccount.com"
}
